1 0 338516 


2 .2 53737.9 
2 1.2 294781 


4 .4 27026 
4 1.4 28037.7 
4 2.4 148701 
4 3.4 143087 


8 .6 130.297 
8 1.6 331.663 
8 2.6 28162.4 
8 3.6 27183.4 
8 4.6 97364.4 
8 5.6 97469.6 
8 6.6 46188.4 
8 7.6 47768.2 


16 .8 6.823 
16 1.8 8.526 
16 2.8 20.414 
16 3.8 27127.7 
16 4.8 27274 
16 5.8 20.447 
16 6.8 8.615 
16 7.8 6.664 
16 8.8 9.967 
16 9.8 6455.39 
16 10.8 54280.9 
16 11.8 83744.5 
16 12.8 83252.9 
16 13.8 54116.3 
16 14.8 6245.65 
16 15.8 10.686 


