
rm -f *.o recur_seq recur_omp
/cluster/apps/gcc-4.8.5/gcc-11.4.0-xxnwhndqaqpuzs4l4ty4yj5tg2cexcg4/bin/gcc -c -O3 recur_seq.c
/cluster/apps/gcc-4.8.5/gcc-11.4.0-xxnwhndqaqpuzs4l4ty4yj5tg2cexcg4/bin/gcc -c walltime.c
/cluster/apps/gcc-4.8.5/gcc-11.4.0-xxnwhndqaqpuzs4l4ty4yj5tg2cexcg4/bin/gcc -O3 recur_seq.o walltime.o -o recur_seq
/cluster/apps/gcc-4.8.5/gcc-11.4.0-xxnwhndqaqpuzs4l4ty4yj5tg2cexcg4/bin/gcc -O3 -fopenmp recur_omp.c walltime.o -o recur_omp


Sequential RunTime:  5.500830 seconds
Final Result Sn   :  485165097.62511122 
Result ||opt||^2_2 :  5884629305179574.000000


-----------------------------------

Parallel RunTime  :  5.541185 seconds
Final Result Sn   :  485165087.92180949 
Result ||opt||^2_2 :  5884629187486990.000000

