Gridsize: 200x200

Running with 1 tasks (1/5)
The simulation took 2.21877 seconds.
-----------------------------------
Running with 1 tasks (2/5)
The simulation took 1.90077 seconds.
-----------------------------------
Running with 1 tasks (3/5)
The simulation took 1.71248 seconds.
-----------------------------------
Running with 1 tasks (4/5)
The simulation took 1.8364 seconds.
-----------------------------------
Running with 1 tasks (5/5)
The simulation took 1.76936 seconds.
-----------------------------------
Running with 2 tasks (1/5)
The simulation took 1.32493 seconds.
-----------------------------------
Running with 2 tasks (2/5)
The simulation took 1.33277 seconds.
-----------------------------------
Running with 2 tasks (3/5)
The simulation took 1.28317 seconds.
-----------------------------------
Running with 2 tasks (4/5)
The simulation took 1.3429 seconds.
-----------------------------------
Running with 2 tasks (5/5)
The simulation took 1.37167 seconds.
-----------------------------------
Running with 4 tasks (1/5)
The simulation took 1.23114 seconds.
-----------------------------------
Running with 4 tasks (2/5)
The simulation took 1.21816 seconds.
-----------------------------------
Running with 4 tasks (3/5)
The simulation took 1.19859 seconds.
-----------------------------------
Running with 4 tasks (4/5)
The simulation took 1.1686 seconds.
-----------------------------------
Running with 4 tasks (5/5)
The simulation took 1.18243 seconds.
-----------------------------------
Running with 8 tasks (1/5)
The simulation took 1.15329 seconds.
-----------------------------------
Running with 8 tasks (2/5)
The simulation took 1.13917 seconds.
-----------------------------------
Running with 8 tasks (3/5)
The simulation took 1.16079 seconds.
-----------------------------------
Running with 8 tasks (4/5)
The simulation took 1.10956 seconds.
-----------------------------------
Running with 8 tasks (5/5)
The simulation took 1.16366 seconds.
-----------------------------------
Running with 16 tasks (1/5)
The simulation took 1.54197 seconds.
-----------------------------------
Running with 16 tasks (2/5)
The simulation took 1.50836 seconds.
-----------------------------------
Running with 16 tasks (3/5)
The simulation took 1.49149 seconds.
-----------------------------------
Running with 16 tasks (4/5)
The simulation took 1.54032 seconds.
-----------------------------------
Running with 16 tasks (5/5)
The simulation took 1.47799 seconds.
-----------------------------------
Running with 32 tasks (1/5)
The simulation took 2.13889 seconds.
-----------------------------------
Running with 32 tasks (2/5)
The simulation took 2.58471 seconds.
-----------------------------------
Running with 32 tasks (3/5)
The simulation took 2.1748 seconds.
-----------------------------------
Running with 32 tasks (4/5)
The simulation took 2.17957 seconds.
-----------------------------------
Running with 32 tasks (5/5)
The simulation took 2.19233 seconds.


SUMMARY (Median)
1, 1.8364
2, 1.33277
4, 1.19859
8, 1.15329
16, 1.50836
32, 2.17957 



Gridsize: 300x300

Running with 1 tasks (1/5)
The simulation took 7.90558 seconds.
-----------------------------------
Running with 1 tasks (2/5)
The simulation took 7.56716 seconds.
-----------------------------------
Running with 1 tasks (3/5)
The simulation took 7.48927 seconds.
-----------------------------------
Running with 1 tasks (4/5)
The simulation took 7.46685 seconds.
-----------------------------------
Running with 1 tasks (5/5)
The simulation took 7.42301 seconds.
-----------------------------------
Running with 2 tasks (1/5)
The simulation took 4.38589 seconds.
-----------------------------------
Running with 2 tasks (2/5)
The simulation took 4.16509 seconds.
-----------------------------------
Running with 2 tasks (3/5)
The simulation took 4.17955 seconds.
-----------------------------------
Running with 2 tasks (4/5)
The simulation took 4.34177 seconds.
-----------------------------------
Running with 2 tasks (5/5)
The simulation took 4.09033 seconds.
-----------------------------------
Running with 4 tasks (1/5)
The simulation took 3.28051 seconds.
-----------------------------------
Running with 4 tasks (2/5)
The simulation took 3.40668 seconds.
-----------------------------------
Running with 4 tasks (3/5)
The simulation took 3.16089 seconds.
-----------------------------------
Running with 4 tasks (4/5)
The simulation took 3.22065 seconds.
-----------------------------------
Running with 4 tasks (5/5)
The simulation took 3.05172 seconds.
-----------------------------------
Running with 8 tasks (1/5)
The simulation took 2.63474 seconds.
-----------------------------------
Running with 8 tasks (2/5)
The simulation took 2.5855 seconds.
-----------------------------------
Running with 8 tasks (3/5)
The simulation took 2.60972 seconds.
-----------------------------------
Running with 8 tasks (4/5)
The simulation took 2.65011 seconds.
-----------------------------------
Running with 8 tasks (5/5)
The simulation took 2.52176 seconds.
-----------------------------------
Running with 16 tasks (1/5)
The simulation took 2.59611 seconds.
-----------------------------------
Running with 16 tasks (2/5)
The simulation took 2.47823 seconds.
-----------------------------------
Running with 16 tasks (3/5)
The simulation took 2.403 seconds.
-----------------------------------
Running with 16 tasks (4/5)
The simulation took 2.36514 seconds.
-----------------------------------
Running with 16 tasks (5/5)
The simulation took 2.41733 seconds.
-----------------------------------
Running with 32 tasks (1/5)
The simulation took 2.76955 seconds.
-----------------------------------
Running with 32 tasks (2/5)
The simulation took 2.66077 seconds.
-----------------------------------
Running with 32 tasks (3/5)
The simulation took 2.67124 seconds.
-----------------------------------
Running with 32 tasks (4/5)
The simulation took 2.77549 seconds.
-----------------------------------
Running with 32 tasks (5/5)
The simulation took 2.61814 seconds.


SUMMARY (Median)
1, 7.48927
2, 4.17955
4, 3.22065
8, 2.60972
16, 2.41733
32, 2.67124 



Gridsize: 400x400

Running with 1 tasks (1/5)
The simulation took 22.428 seconds.
-----------------------------------
Running with 1 tasks (2/5)
The simulation took 21.7782 seconds.
-----------------------------------
Running with 1 tasks (3/5)
The simulation took 22.0462 seconds.
-----------------------------------
Running with 1 tasks (4/5)
The simulation took 21.8665 seconds.
-----------------------------------
Running with 1 tasks (5/5)
The simulation took 22.0171 seconds.
-----------------------------------
Running with 2 tasks (1/5)
The simulation took 11.3934 seconds.
-----------------------------------
Running with 2 tasks (2/5)
The simulation took 11.1135 seconds.
-----------------------------------
Running with 2 tasks (3/5)
The simulation took 11.0375 seconds.
-----------------------------------
Running with 2 tasks (4/5)
The simulation took 11.0685 seconds.
-----------------------------------
Running with 2 tasks (5/5)
The simulation took 10.9736 seconds.
-----------------------------------
Running with 4 tasks (1/5)
The simulation took 6.21485 seconds.
-----------------------------------
Running with 4 tasks (2/5)
The simulation took 6.29611 seconds.
-----------------------------------
Running with 4 tasks (3/5)
The simulation took 6.38696 seconds.
-----------------------------------
Running with 4 tasks (4/5)
The simulation took 6.15474 seconds.
-----------------------------------
Running with 4 tasks (5/5)
The simulation took 6.22947 seconds.
-----------------------------------
Running with 8 tasks (1/5)
The simulation took 4.33367 seconds.
-----------------------------------
Running with 8 tasks (2/5)
The simulation took 5.11283 seconds.
-----------------------------------
Running with 8 tasks (3/5)
The simulation took 4.34757 seconds.
-----------------------------------
Running with 8 tasks (4/5)
The simulation took 4.30486 seconds.
-----------------------------------
Running with 8 tasks (5/5)
The simulation took 4.96028 seconds.
-----------------------------------
Running with 16 tasks (1/5)
The simulation took 3.75647 seconds.
-----------------------------------
Running with 16 tasks (2/5)
The simulation took 3.78577 seconds.
-----------------------------------
Running with 16 tasks (3/5)
The simulation took 3.96617 seconds.
-----------------------------------
Running with 16 tasks (4/5)
The simulation took 3.712 seconds.
-----------------------------------
Running with 16 tasks (5/5)
The simulation took 3.78445 seconds.
-----------------------------------
Running with 32 tasks (1/5)
The simulation took 4.02428 seconds.
-----------------------------------
Running with 32 tasks (2/5)
The simulation took 4.12073 seconds.
-----------------------------------
Running with 32 tasks (3/5)
The simulation took 3.55389 seconds.
-----------------------------------
Running with 32 tasks (4/5)
The simulation took 4.15262 seconds.
-----------------------------------
Running with 32 tasks (5/5)
The simulation took 3.52555 seconds.
-----------------------------------

SUMMARY (Median)
1, 22.0171
2, 11.0685
4, 6.22947
8, 4.34757
16, 3.78445
32, 4.02428


Gridsize: 500x500

Running with 1 tasks (1/5)
The simulation took 33.2324 seconds.
-----------------------------------
Running with 1 tasks (2/5)
The simulation took 32.8014 seconds.
-----------------------------------
Running with 1 tasks (3/5)
The simulation took 32.736 seconds.
-----------------------------------
Running with 1 tasks (4/5)
The simulation took 32.7208 seconds.
-----------------------------------
Running with 1 tasks (5/5)
The simulation took 33.2495 seconds.
-----------------------------------
Running with 2 tasks (1/5)
The simulation took 19.3933 seconds.
-----------------------------------
Running with 2 tasks (2/5)
The simulation took 19.1574 seconds.
-----------------------------------
Running with 2 tasks (3/5)
The simulation took 19.3171 seconds.
-----------------------------------
Running with 2 tasks (4/5)
The simulation took 19.1842 seconds.
-----------------------------------
Running with 2 tasks (5/5)
The simulation took 19.1719 seconds.
-----------------------------------
Running with 4 tasks (1/5)
The simulation took 8.89012 seconds.
-----------------------------------
Running with 4 tasks (2/5)
The simulation took 9.0372 seconds.
-----------------------------------
Running with 4 tasks (3/5)
The simulation took 8.97041 seconds.
-----------------------------------
Running with 4 tasks (4/5)
The simulation took 8.74271 seconds.
-----------------------------------
Running with 4 tasks (5/5)
The simulation took 8.92202 seconds.
-----------------------------------
Running with 8 tasks (1/5)
The simulation took 5.88394 seconds.
-----------------------------------
Running with 8 tasks (2/5)
The simulation took 6.521 seconds.
-----------------------------------
Running with 8 tasks (3/5)
The simulation took 5.42681 seconds.
-----------------------------------
Running with 8 tasks (4/5)
The simulation took 6.45625 seconds.
-----------------------------------
Running with 8 tasks (5/5)
The simulation took 6.61632 seconds.
-----------------------------------
Running with 16 tasks (1/5)
The simulation took 4.54517 seconds.
-----------------------------------
Running with 16 tasks (2/5)
The simulation took 4.48107 seconds.
-----------------------------------
Running with 16 tasks (3/5)
The simulation took 4.40649 seconds.
-----------------------------------
Running with 16 tasks (4/5)
The simulation took 4.66215 seconds.
-----------------------------------
Running with 16 tasks (5/5)
The simulation took 4.46725 seconds.
-----------------------------------
Running with 32 tasks (1/5)
The simulation took 4.14469 seconds.
-----------------------------------
Running with 32 tasks (2/5)
The simulation took 4.11592 seconds.
-----------------------------------
Running with 32 tasks (3/5)
The simulation took 4.00857 seconds.
-----------------------------------
Running with 32 tasks (4/5)
The simulation took 4.05797 seconds.
-----------------------------------
Running with 32 tasks (5/5)
The simulation took 3.99854 seconds.


