500,7.366744e-02,2.000767e-04
1000,7.129431e-02,5.036666e-04
1500,7.600475e-02,1.368530e-04
2000,7.442863e-02,6.181737e-04
2500,6.032688e-02,2.781619e-04
3000,6.912822e-02,2.396955e-04
3500,6.215806e-02,1.289163e-04
4000,7.125940e-02,4.756783e-04
4500,6.568838e-02,3.248630e-04
5000,7.662076e-02,2.509069e-04
5500,5.867206e-02,3.399579e-05
6000,6.251039e-02,1.525266e-04
6500,7.049964e-02,6.159877e-04
7000,6.261451e-02,2.490211e-04
7500,7.042921e-02,1.612014e-04
8000,6.946115e-02,2.739292e-05
8500,6.777405e-02,2.387374e-04
9000,7.485649e-02,1.662353e-04
9500,6.863573e-02,6.985425e-05
10000,5.512652e-02,4.752412e-04
10500,6.671294e-02,5.434654e-04
11000,6.558465e-02,1.533606e-04
11500,6.306597e-02,6.168868e-04
12000,7.267056e-02,1.494773e-04
12500,7.008241e-02,1.546792e-04
13000,7.407925e-02,9.439413e-05
13500,6.503687e-02,1.974238e-04
14000,8.219124e-02,2.786114e-04
14500,7.101251e-02,1.229327e-04
15000,6.873069e-02,2.948968e-04
15500,6.367111e-02,2.740340e-04
16000,6.387164e-02,6.983389e-05
16500,7.015334e-02,1.196639e-04
17000,7.555458e-02,2.717419e-04
17500,7.583459e-02,8.175715e-04
18000,5.765389e-02,3.728586e-04
18500,5.929329e-02,1.168105e-04
19000,6.358272e-02,4.956128e-05
19500,6.147920e-02,7.614918e-05
20000,6.405469e-02,1.591356e-04
20500,7.132724e-02,2.789280e-04
21000,6.723985e-02,1.430100e-04
21500,7.755317e-02,1.208140e-04
22000,5.958188e-02,9.253574e-05
22500,7.001814e-02,3.550227e-04
23000,6.210092e-02,1.523988e-04
23500,6.866839e-02,3.761951e-04
24000,7.264631e-02,6.045573e-05
24500,6.981249e-02,4.908588e-04
25000,7.167446e-02,6.024178e-04
25500,6.472689e-02,1.019886e-04
26000,7.004555e-02,2.191039e-04
26500,6.265421e-02,5.239736e-04
27000,7.096994e-02,3.017245e-04
27500,6.082784e-02,3.399996e-04
28000,5.777247e-02,2.254645e-04
28500,6.155872e-02,6.456418e-04
29000,6.721133e-02,2.140596e-04
29500,6.295539e-02,7.059472e-05
30000,6.101838e-02,2.377012e-04
30500,6.160992e-02,1.372207e-04
31000,7.345636e-02,3.655939e-05
31500,5.943792e-02,5.075705e-05
32000,7.025222e-02,2.313363e-04
32500,7.092785e-02,1.808664e-04
33000,5.898903e-02,6.612446e-05
33500,6.246657e-02,1.361243e-04
34000,6.413126e-02,2.696917e-04
34500,6.715141e-02,6.919682e-05
35000,7.137626e-02,1.499598e-04
35500,6.826668e-02,2.079716e-04
36000,7.278146e-02,1.021884e-04
36500,6.953303e-02,1.359558e-04
37000,6.156019e-02,7.753202e-05
37500,6.526625e-02,4.868935e-04
38000,6.518778e-02,7.048772e-05
38500,6.291587e-02,1.491046e-04
39000,7.011355e-02,9.043943e-05
39500,7.311769e-02,1.004456e-04
40000,6.179610e-02,4.794184e-04
40500,6.148845e-02,1.281167e-04
41000,7.042245e-02,7.848461e-05
41500,6.765485e-02,1.686262e-04
42000,6.153873e-02,1.030889e-04
42500,6.271431e-02,8.177565e-05
43000,6.731927e-02,1.363005e-04
43500,6.473395e-02,1.271759e-04
44000,6.331377e-02,9.814484e-05
44500,5.925905e-02,1.727810e-04
45000,6.654389e-02,2.416301e-04
45500,6.777785e-02,8.426011e-05
46000,6.632745e-02,1.277830e-04
46500,6.468086e-02,4.025921e-05
47000,6.669357e-02,4.891283e-05
47500,6.218385e-02,1.608653e-04
48000,6.418294e-02,5.785617e-05
48500,6.848888e-02,1.742229e-04
49000,6.885235e-02,1.513851e-04
49500,6.338529e-02,2.046067e-04
50000,6.301655e-02,9.595483e-05
50500,6.860885e-02,1.316060e-04
51000,5.696985e-02,9.710164e-05
51500,7.184477e-02,1.721565e-04
52000,6.502452e-02,6.300005e-05
52500,6.926702e-02,5.847737e-05
53000,7.302944e-02,7.153737e-05
53500,5.886147e-02,2.822696e-04
54000,6.469991e-02,8.036400e-05
54500,7.108328e-02,1.110197e-04
55000,6.417363e-02,3.516174e-05
55500,6.567629e-02,7.964461e-05
56000,7.132039e-02,2.487848e-04
56500,6.811356e-02,1.358860e-04
57000,6.450450e-02,5.307611e-05
57500,7.475456e-02,1.069364e-04
58000,5.917926e-02,1.521833e-04
58500,6.845665e-02,1.832247e-04
59000,5.956645e-02,2.210456e-04
59500,7.743638e-02,1.537875e-04
60000,6.395938e-02,1.053200e-04
60500,5.973442e-02,1.831364e-04
61000,6.734592e-02,1.569960e-04
61500,6.445358e-02,2.137469e-04
62000,6.704630e-02,6.957950e-05
62500,7.410555e-02,3.977312e-04
63000,6.686964e-02,1.426531e-04
63500,6.676748e-02,6.223734e-05
64000,6.678083e-02,7.118828e-05
64500,6.307771e-02,1.050220e-04
65000,6.398665e-02,2.193891e-04
65500,6.851114e-02,2.942725e-04
66000,6.778497e-02,1.099278e-04
66500,6.582208e-02,1.559614e-04
67000,6.350302e-02,1.709990e-04
67500,6.615323e-02,3.259062e-05
68000,6.401514e-02,1.359448e-04
68500,6.473754e-02,7.535826e-05
69000,6.695330e-02,5.377667e-05
69500,6.459971e-02,1.271814e-04
70000,6.736149e-02,1.111071e-04
70500,7.878314e-02,1.647195e-04
71000,6.544510e-02,4.163159e-05
71500,7.102331e-02,1.190507e-04
72000,6.642613e-02,8.539876e-05
72500,6.111936e-02,2.556091e-04
73000,6.916601e-02,1.731378e-04
73500,6.786798e-02,1.783767e-04
74000,7.078407e-02,8.609324e-05
74500,6.738700e-02,1.908624e-04
75000,6.211134e-02,1.455159e-04
75500,6.741852e-02,1.530933e-04
76000,7.198613e-02,5.042451e-04
76500,6.679900e-02,8.129318e-05
77000,6.309189e-02,7.034786e-05
77500,6.455081e-02,3.947545e-05
78000,6.464408e-02,5.777880e-05
78500,6.406854e-02,1.801320e-04
79000,6.481742e-02,2.498878e-04
79500,6.021053e-02,1.314927e-04
80000,6.712103e-02,6.430517e-05
80500,6.667295e-02,1.392959e-04
81000,6.738961e-02,1.570601e-04
81500,6.643239e-02,1.671696e-04
82000,6.635189e-02,1.339454e-04
82500,6.713400e-02,2.500566e-04
83000,6.315044e-02,6.174734e-05
83500,7.183115e-02,7.012331e-05
84000,6.027249e-02,1.328150e-04
84500,6.565496e-02,7.053958e-05
85000,6.078747e-02,4.705778e-05
85500,6.334494e-02,2.348527e-04
86000,6.441344e-02,1.178032e-04
86500,6.692998e-02,1.907813e-04
87000,6.354582e-02,4.252474e-05
87500,6.021657e-02,6.915210e-05
88000,6.470586e-02,7.143333e-05
88500,6.538418e-02,4.078499e-05
89000,5.920988e-02,2.699684e-04
89500,5.733109e-02,1.900280e-04
90000,6.348935e-02,2.744564e-05
90500,6.525541e-02,9.460580e-05
91000,6.873733e-02,1.557842e-04
91500,6.274615e-02,8.328905e-05
92000,6.389289e-02,7.324079e-05
92500,6.744707e-02,1.063222e-04
93000,6.271216e-02,1.026238e-04
93500,7.413850e-02,1.595343e-04
94000,6.332710e-02,1.026837e-04
94500,5.327176e-02,1.637450e-04
95000,6.697647e-02,8.377564e-05
95500,6.134037e-02,1.639142e-04
96000,6.128917e-02,4.505356e-05
96500,5.993050e-02,1.685420e-04
97000,6.331756e-02,8.560337e-05
97500,6.408245e-02,5.855735e-05
98000,6.277566e-02,5.905240e-05
98500,6.996653e-02,3.810039e-04
99000,6.376815e-02,1.385742e-04
99500,6.073315e-02,4.532794e-05
100000,6.272225e-02,4.587139e-05
100500,6.707702e-02,1.574008e-04
101000,6.606491e-02,1.493815e-04
101500,6.874111e-02,9.065737e-05
102000,6.353149e-02,6.504508e-05
102500,6.875158e-02,3.479060e-04
103000,6.431543e-02,1.459457e-04
103500,6.862439e-02,9.833046e-05
104000,6.818593e-02,8.752279e-05
104500,6.327471e-02,2.471606e-05
105000,6.840664e-02,1.514405e-04
105500,6.901048e-02,7.329649e-05
106000,6.792633e-02,2.864042e-04
106500,6.062265e-02,1.494394e-04
107000,6.819734e-02,8.052685e-05
107500,6.221313e-02,6.682978e-05
108000,6.530859e-02,1.033384e-04
108500,5.886744e-02,2.845783e-05
109000,6.159535e-02,2.549371e-05
109500,6.343441e-02,6.138698e-05
110000,6.788058e-02,1.212735e-04
110500,6.072540e-02,4.863569e-05
111000,6.564159e-02,8.458950e-05
111500,6.912105e-02,1.997467e-05
112000,6.530999e-02,9.781828e-05
112500,6.648448e-02,1.023119e-04
113000,6.651668e-02,4.829555e-05
113500,5.980240e-02,3.125894e-04
114000,6.487160e-02,1.152779e-04
114500,7.181015e-02,1.339709e-04
115000,6.595613e-02,1.003328e-04
115500,7.309660e-02,7.679922e-05
116000,6.728568e-02,9.847331e-05
116500,6.740616e-02,1.609082e-04
117000,6.126880e-02,8.246308e-05
117500,6.341480e-02,1.087254e-04
118000,6.987826e-02,1.429953e-04
118500,5.966365e-02,1.136247e-04
119000,6.093741e-02,1.194625e-04
119500,6.111535e-02,8.208944e-05
120000,6.792101e-02,8.148463e-05
120500,7.264520e-02,1.027673e-04
121000,6.688417e-02,5.299542e-05
121500,6.291713e-02,6.177939e-05
122000,6.748346e-02,3.504207e-05
122500,6.193466e-02,4.871457e-05
123000,6.067486e-02,5.161465e-05
123500,6.821318e-02,7.484941e-05
124000,6.648616e-02,2.005198e-04
124500,6.014613e-02,5.457655e-05
125000,6.170013e-02,7.472972e-05
125500,7.037979e-02,1.687581e-04
126000,6.751723e-02,5.271457e-05
126500,6.599562e-02,1.813089e-04
127000,6.591629e-02,9.450216e-05
127500,6.613904e-02,1.565238e-04
128000,6.448492e-02,1.695921e-04
128500,7.167661e-02,1.391815e-04
129000,6.896349e-02,6.693643e-05
129500,6.329559e-02,4.638953e-05
130000,6.358556e-02,8.634768e-05
130500,6.605146e-02,5.255114e-05
131000,6.540840e-02,4.519064e-05
131500,6.619112e-02,1.364660e-04
132000,6.338616e-02,1.296586e-04
132500,6.625892e-02,3.049977e-05
133000,6.459028e-02,8.139712e-05
133500,7.444669e-02,1.394396e-04
134000,6.628870e-02,5.324707e-05
134500,6.719142e-02,3.716821e-05
135000,6.454961e-02,1.532330e-04
135500,6.656935e-02,9.648933e-05
136000,6.442932e-02,2.588776e-05
136500,7.360860e-02,1.091607e-04
137000,6.466299e-02,2.274599e-04
137500,6.677611e-02,9.243550e-05
138000,6.418333e-02,7.547595e-05
138500,6.936311e-02,4.851088e-05
139000,6.748647e-02,6.188579e-05
139500,6.319337e-02,1.020479e-04
140000,6.562031e-02,9.104825e-05
140500,7.284093e-02,7.523859e-05
141000,6.275296e-02,5.067725e-05
141500,7.071731e-02,1.149376e-04
142000,7.051072e-02,1.591916e-04
142500,6.031866e-02,1.222978e-04
143000,6.692373e-02,8.396973e-05
143500,7.300630e-02,1.518964e-04
144000,6.462149e-02,1.297030e-04
144500,6.785302e-02,5.027103e-05
145000,6.671299e-02,9.536322e-05
145500,6.728328e-02,8.696614e-05
146000,6.605410e-02,1.638015e-04
146500,6.271231e-02,7.724056e-05
147000,6.445982e-02,8.685467e-05
147500,6.756246e-02,1.087239e-04
148000,7.952983e-02,1.499370e-04
148500,7.192754e-02,1.297759e-04
149000,6.798369e-02,1.336204e-04
149500,6.821228e-02,5.451656e-05
150000,7.230220e-02,5.649698e-05
150500,7.135227e-02,8.308647e-05
151000,6.668628e-02,4.496471e-05
151500,6.396585e-02,1.991903e-04
152000,6.386730e-02,5.907373e-05
152500,6.205040e-02,4.829584e-05
153000,6.426273e-02,5.351231e-05
153500,6.897347e-02,1.000591e-04
154000,6.725293e-02,2.103228e-04
154500,6.721617e-02,8.271683e-05
155000,7.420312e-02,5.872455e-04
155500,6.543827e-02,7.165303e-05
156000,6.334656e-02,1.194878e-04
156500,6.603881e-02,6.423728e-05
157000,7.127345e-02,8.964788e-05
157500,7.242451e-02,3.112863e-05
158000,7.157911e-02,8.751690e-05
158500,7.192114e-02,3.820306e-04
159000,6.587358e-02,4.398512e-05
159500,7.219318e-02,1.194006e-04
160000,7.090035e-02,6.125826e-05
160500,6.866285e-02,1.071114e-04
161000,6.691717e-02,4.024735e-05
161500,6.819890e-02,6.306751e-05
162000,6.835420e-02,5.663737e-05
162500,7.219830e-02,5.078732e-05
163000,7.247911e-02,7.924326e-05
163500,6.700604e-02,1.304153e-04
164000,7.431974e-02,1.789834e-04
164500,7.278082e-02,5.894223e-05
165000,6.076495e-02,1.325138e-04
165500,6.660294e-02,1.156732e-04
166000,6.896067e-02,2.944568e-05
166500,6.464627e-02,5.040223e-05
167000,6.663102e-02,6.032705e-05
167500,6.950176e-02,1.276267e-04
168000,6.226961e-02,1.198665e-04
168500,7.142076e-02,8.571074e-05
169000,6.462573e-02,7.385954e-05
169500,6.585362e-02,1.469378e-04
170000,7.064037e-02,9.790009e-05
170500,6.445791e-02,6.789469e-05
171000,6.500084e-02,1.712876e-04
171500,6.080381e-02,3.976611e-05
172000,7.025591e-02,7.684541e-05
172500,6.830728e-02,5.933168e-05
173000,6.488791e-02,1.020258e-04
173500,6.885381e-02,1.162829e-04
174000,6.935578e-02,4.862305e-05
174500,6.692324e-02,5.917020e-05
175000,6.656252e-02,6.854054e-05
175500,6.584804e-02,7.125144e-05
176000,6.794159e-02,2.859504e-05
176500,6.753740e-02,1.103286e-04
177000,7.538675e-02,6.457903e-05
177500,7.626055e-02,1.220343e-04
178000,7.077444e-02,6.346274e-05
178500,7.466586e-02,2.284895e-04
179000,6.513236e-02,4.155767e-05
179500,7.423622e-02,9.225478e-05
180000,6.828736e-02,2.544333e-04
180500,7.097469e-02,1.343000e-04
181000,6.352832e-02,9.833675e-05
181500,7.409638e-02,2.224686e-04
182000,6.858848e-02,2.141638e-04
182500,7.131243e-02,6.954499e-05
183000,6.376045e-02,2.628533e-05
183500,6.727668e-02,6.734962e-05
184000,6.607839e-02,7.786979e-05
184500,6.401466e-02,1.071243e-04
185000,6.504306e-02,1.128263e-04
185500,7.838796e-02,2.013853e-04
186000,7.417799e-02,9.501650e-05
186500,7.186761e-02,1.895014e-04
187000,6.718665e-02,8.016160e-05
187500,6.866881e-02,7.410484e-05
188000,7.411255e-02,9.640406e-05
188500,6.654141e-02,1.333505e-04
189000,6.865008e-02,5.543228e-05
189500,6.591401e-02,3.518125e-05
190000,7.227736e-02,1.562035e-04
190500,6.762129e-02,1.967743e-04
191000,6.920674e-02,1.023092e-04
191500,6.468495e-02,1.265509e-04
192000,6.830451e-02,1.006357e-04
192500,7.173268e-02,7.562559e-05
193000,6.985146e-02,1.688708e-04
193500,7.331918e-02,1.470450e-04
194000,6.241460e-02,9.363021e-05
194500,7.469097e-02,9.932586e-05
195000,6.685533e-02,1.625294e-04
195500,6.775006e-02,8.463154e-05
196000,7.236109e-02,3.691853e-05
196500,6.655227e-02,9.272423e-05
197000,7.567113e-02,1.332948e-04
197500,6.946784e-02,1.613844e-04
198000,7.578093e-02,1.493746e-04
198500,7.138343e-02,1.198377e-04
199000,7.206788e-02,7.834328e-05
199500,6.834748e-02,1.209392e-04
200000,7.703804e-02,1.004902e-04
200500,7.066480e-02,6.468770e-05
201000,6.644686e-02,6.804717e-05
201500,7.115520e-02,2.573757e-04
202000,6.950936e-02,1.053148e-04
202500,6.676892e-02,5.659140e-05
203000,6.892761e-02,8.405158e-05
203500,6.853171e-02,1.188550e-04
204000,6.939665e-02,9.876509e-05
204500,6.502571e-02,5.725060e-05
205000,6.798301e-02,2.220368e-04
205500,6.750560e-02,1.796002e-04
206000,6.624144e-02,8.119489e-05
206500,6.713640e-02,8.922530e-05
207000,7.018878e-02,4.541971e-04
207500,6.628750e-02,8.395786e-05
208000,7.183106e-02,4.565309e-04
208500,6.786275e-02,1.248292e-04
209000,6.747085e-02,5.082546e-05
209500,6.443283e-02,9.464790e-05
210000,7.013878e-02,9.227631e-05
210500,6.027749e-02,4.152005e-04
211000,6.094611e-02,7.365108e-05
211500,7.267093e-02,7.920093e-05
212000,7.477465e-02,3.929449e-05
212500,7.113350e-02,8.415629e-05
213000,7.214715e-02,1.406625e-04
213500,6.746112e-02,4.890139e-05
214000,7.375183e-02,1.467774e-04
214500,6.401126e-02,2.301831e-04
215000,6.791247e-02,9.540120e-05
215500,6.403734e-02,8.333663e-05
216000,7.171247e-02,1.725255e-04
216500,7.339618e-02,1.676861e-04
217000,6.644870e-02,1.326936e-04
217500,6.794004e-02,1.412454e-04
218000,7.272260e-02,2.388171e-04
218500,8.028239e-02,1.785658e-04
219000,7.229373e-02,5.533119e-05
219500,8.221412e-02,7.790565e-05
220000,7.241302e-02,8.962308e-05
220500,6.786834e-02,3.152714e-05
221000,8.136338e-02,1.863156e-04
221500,6.815529e-02,8.076223e-05
222000,8.253382e-02,2.068110e-04
222500,7.607084e-02,2.404573e-04
223000,7.820354e-02,3.768919e-05
223500,8.258432e-02,7.679985e-05
224000,7.808031e-02,1.679527e-04
224500,7.670990e-02,5.344061e-05
225000,8.169822e-02,7.352186e-05
225500,8.169741e-02,4.947061e-05
226000,8.340627e-02,1.873955e-04
226500,8.100230e-02,6.968058e-05
227000,7.464109e-02,6.076230e-05
227500,8.268131e-02,6.448690e-05
