Resolution: 64 x 64, Processes: 1, Average Time to Solution: 0.027
Resolution: 64 x 64, Processes: 2, Average Time to Solution: 0.016
Resolution: 64 x 64, Processes: 4, Average Time to Solution: 0.022
Resolution: 64 x 64, Processes: 8, Average Time to Solution: 0.024
Resolution: 64 x 64, Processes: 16, Average Time to Solution: 0.027
Resolution: 64 x 64, Processes: 32, Average Time to Solution: 0.022
Resolution: 64 x 64, Processes: 64, Average Time to Solution: 0.428
Resolution: 128 x 128, Processes: 1, Average Time to Solution: 0.148
Resolution: 128 x 128, Processes: 2, Average Time to Solution: 0.077
Resolution: 128 x 128, Processes: 4, Average Time to Solution: 0.078
Resolution: 128 x 128, Processes: 8, Average Time to Solution: 0.049
Resolution: 128 x 128, Processes: 16, Average Time to Solution: 0.041
Resolution: 128 x 128, Processes: 32, Average Time to Solution: 0.039
Resolution: 128 x 128, Processes: 64, Average Time to Solution: 0.042
Resolution: 256 x 256, Processes: 1, Average Time to Solution: 1.005
Resolution: 256 x 256, Processes: 2, Average Time to Solution: 0.520
Resolution: 256 x 256, Processes: 4, Average Time to Solution: 0.425
Resolution: 256 x 256, Processes: 8, Average Time to Solution: 0.258
Resolution: 256 x 256, Processes: 16, Average Time to Solution: 0.147
Resolution: 256 x 256, Processes: 32, Average Time to Solution: 0.098
Resolution: 256 x 256, Processes: 64, Average Time to Solution: 0.083
Resolution: 512 x 512, Processes: 1, Average Time to Solution: 7.956
Resolution: 512 x 512, Processes: 2, Average Time to Solution: 3.818
Resolution: 512 x 512, Processes: 4, Average Time to Solution: 2.640
Resolution: 512 x 512, Processes: 8, Average Time to Solution: 1.586
Resolution: 512 x 512, Processes: 16, Average Time to Solution: 0.904
Resolution: 512 x 512, Processes: 32, Average Time to Solution: 0.486
Resolution: 512 x 512, Processes: 64, Average Time to Solution: 0.382
Resolution: 1024 x 1024, Processes: 1, Average Time to Solution: 92.389
Resolution: 1024 x 1024, Processes: 2, Average Time to Solution: 60.126
Resolution: 1024 x 1024, Processes: 4, Average Time to Solution: 16.683
Resolution: 1024 x 1024, Processes: 8, Average Time to Solution: 8.483
Resolution: 1024 x 1024, Processes: 16, Average Time to Solution: 5.307
Resolution: 1024 x 1024, Processes: 32, Average Time to Solution: 2.762
Resolution: 1024 x 1024, Processes: 64, Average Time to Solution: 1.672
